Introduction to move2imu • move2imu
…
# Load sample Movebank data into a `move2`
alb <- albatrosses()

alb
#> A <move2> with `track_id_column` "individual_local_identifier" and
#> `time_column` "timestamp"
#> Containing 9 tracks lasting on average 59.3 mins in a
#> Simple feature collection with 54 features and 21 fields (with 45 geometries empty)
#> Geometry type: POINT
#> Dimension:     XY
#> Bounding box:  xmin: -89.67882 ymin: -9.06721 xmax: -78.67636 ymax: -1.025846
#> Geodetic CRS:  WGS 84
#> # A tibble: 54 × 22
#>    sensor_type_id individual_local_identifier eobs_battery_voltage
#>  *        <int64> <fct>                                       [mV]
#>  1            653 4266-84831108                               3759
#>  2        2365683 4266-84831108                                 NA
#>  3        2365683 4266-84831108                                 NA
#>  4        2365683 4266-84831108                                 NA
#>  5        2365683 4266-84831108                                 NA
#>  6        2365683 4266-84831108                                 NA
#>  7            653 4261-2228                                   3720
#>  8        2365683 4261-2228                                     NA
#>  9        2365683 4261-2228                                     NA
#> 10        2365683 4261-2228                                     NA
#> # ℹ 44 more rows
#> # ℹ 19 more variables: eobs_fix_battery_voltage [mV],
#> #   eobs_horizontal_accuracy_estimate [m], eobs_key_bin_checksum <int64>,
#> #   eobs_speed_accuracy_estimate [m/s], eobs_start_timestamp <dttm>,
#> #   eobs_status <ord>, eobs_temperature [°C], eobs_type_of_fix <fct>,
#> #   eobs_used_time_to_get_fix [s], ground_speed [m/s], heading [°],
#> #   height_above_ellipsoid [m], timestamp <dttm>, visible <lgl>, …
…
alb |>
  mutate(acceleration = a) |>
  select(acceleration)
#> A <move2> with `track_id_column` "individual_local_identifier" and
#> `time_column` "timestamp"
#> Containing 9 tracks lasting on average 59.3 mins in a
#> Simple feature collection with 54 features and 3 fields (with 45 geometries empty)
#> Geometry type: POINT
#> Dimension:     XY
#> Bounding box:  xmin: -89.67882 ymin: -9.06721 xmax: -78.67636 ymax: -1.025846
#> Geodetic CRS:  WGS 84
#> # A tibble: 54 × 4
#>         acceleration              geometry timestamp          
#>                <acc>           <POINT [°]> <dttm>             
#>  1                NA  (-78.67636 -9.06721) 2008-07-27 00:00:56
#>  2 (1824.17 1913.83)                 EMPTY 2008-07-27 00:00:56
#>  3   (1904.3 1926.5)                 EMPTY 2008-07-27 00:15:00
#>  4 (1823.27 1913.42)                 EMPTY 2008-07-27 00:30:00
#>  5   (1826.7 1915.7)                 EMPTY 2008-07-27 00:45:00
#>  6  (1719.07 1908.8)                 EMPTY 2008-07-27 01:00:00
#>  7                NA (-89.45139 -2.083909) 2008-07-27 00:00:15
#>  8 (1943.47 2028.05)                 EMPTY 2008-07-27 00:00:15
#>  9 (1927.98 2013.72)                 EMPTY 2008-07-27 00:15:00
#> 10  (1926.7 2008.82)                 EMPTY 2008-07-27 00:30:00
#> # ℹ 44 more rows
#> # ℹ 1 more variable: individual_local_identifier <fct>
…
